%YAML 1.1
%TAG !u! tag:unity3d.com,2011:
--- !u!78 &1
TagManager:
  serializedVersion: 2
  tags:
  - Wall
  - Object
  - Bullet
  layers:
  - Default
  - TransparentFX
  - Ignore Raycast
  - 
  - Water
  - UI
  - Tetherable
  - Wall
  - 
  - 
  - 
  - 
  - 
  - 
  - 
  - 
  - 
  - 
  - 
  - 
  - 
  - 
  - 
  - 
  - 
  - 
  - 
  - 
  - 
  - 
  - 
  - 
  m_SortingLayers:
  - name: Background
    uniqueID: 2255149265
    locked: 0
  - name: Default
    uniqueID: 0
    locked: 0
  - name: Foreground
    uniqueID: 4288676009
    locked: 0
  - name: UI
    uniqueID: 1333216169
    locked: 0
